#timestep	temperature	pair_lj_energy	bond_harmonic_energy	angle_harmonic_energy	dihedral_harmonic_energy	potential_energy
0	0	8712.155774	109.5056789	7.053944437	8.104537618	8836.819935
100	9.943446584	1159.690917	2387.334728	971.000593	7.627463653	4525.653702
200	10.35045932	1354.272695	928.6880706	819.9817673	9.561315058	3112.503848
300	7.077205571	737.6664493	1324.047584	538.2242293	9.698546005	2609.636809
400	5.156800593	678.7441569	837.4423019	390.5715241	8.67467284	1915.432656
500	3.04279633	760.3378798	533.3636536	420.4129684	9.498053508	1723.612555
600	2.162028686	519.9862918	647.9312313	233.4333423	8.907513991	1410.258379
700	1.615342465	607.5396505	353.3920231	185.9554372	8.956714241	1155.843825
800	1.04779815	547.5249822	372.4690919	128.6168849	8.569066767	1057.180026
900	0.8304655657	536.621501	302.0044301	90.66735718	8.730781966	938.0240703
1000	0.6037997363	558.8374818	243.4625648	80.49459546	8.698515939	891.4931579
1100	0.4928650852	515.233708	258.0645146	63.60026793	8.646693647	845.5451842
1200	0.3551833309	532.9419074	231.2014768	62.99814992	8.685447871	835.826982
1300	0.3274463631	502.0086263	251.369347	41.09633088	8.825363635	803.2996678
1400	0.2892873952	486.261815	254.7387592	37.54159224	8.878077751	787.4202442
1500	0.2686191501	474.6228106	251.0573675	42.99696287	8.716011997	777.393153
1600	0.2674160451	457.0068807	266.2232585	35.5598089	8.866353798	767.6563019
1700	0.2516321343	515.2886412	204.4990861	41.69357166	9.095344751	770.5766437
1800	0.2621899419	438.0918299	278.0739984	45.92623883	9.049732761	771.1417999
1900	0.3076386525	521.0352585	189.2435093	47.50298935	9.080159682	766.8619169
2000	0.3560474976	452.0706518	267.0671003	44.59365335	9.095030083	772.8264355
2100	0.4192849424	514.2562577	214.6899435	46.52867653	9.113071599	784.5879494
2200	0.5262881876	499.572622	232.7092272	60.85243408	9.328717712	802.463001
2300	0.6758475349	446.1094233	301.4978742	79.85114724	9.611597506	837.0700422
2400	0.9538873837	543.1288884	237.9251364	80.86733388	10.24066946	872.1620282
2500	1.34977012	473.9304633	360.7100421	96.57158265	10.12494162	941.3370297
2600	1.937725424	522.60056	372.917347	140.3762123	11.03700949	1046.931129
2700	3.023890177	608.6120709	359.153567	173.6861293	12.72490037	1154.176668
2800	4.595155902	565.8123974	561.2111752	237.8485672	12.39226362	1377.264403
2900	7.003017376	807.1117802	473.7110657	322.576093	13.8878184	1617.286757
3000	9.429577727	886.2105822	724.884432	388.999439	14.38518505	2014.479638
3100	10.55123773	1003.249316	988.1457629	578.8913845	15.32771664	2585.61418
3200	10.62799905	1283.940058	813.0407836	718.5155892	16.79458286	2832.291014
3300	9.133725003	912.220334	1280.131243	730.9762403	15.76442909	2939.092247
3400	8.022179667	1047.12443	780.4368609	576.1295036	18.33964205	2422.030436
3500	5.918511575	822.3037122	774.2959201	484.9305766	17.62395491	2099.154164
3600	4.145618772	780.0518693	636.8562252	416.6611218	16.72936605	1850.298582
3700	2.94645775	749.504081	489.4706096	330.597085	17.05443727	1586.626213
3800	2.250534941	643.2143786	451.1735911	232.1450493	15.86382215	1342.396841
3900	1.73737222	595.6852611	372.5907953	175.9971832	15.71655863	1159.989798
4000	1.317766394	560.5563177	318.8342644	153.8128345	15.89953808	1049.102955
4100	1.045745351	490.7892155	335.00023	121.2881362	15.81949559	962.8970773
4200	0.8412722637	549.9744175	236.6441313	105.5550085	15.88385472	908.057412
4300	0.668227605	494.4855642	282.2209612	91.31815811	16.11480355	884.139487
4400	0.562526466	501.2350614	256.4316499	90.08064996	16.0940451	863.8414063
4500	0.5337936787	483.3357758	256.3052778	79.35364091	16.28145885	835.2761534
4600	0.5009616422	476.8810511	256.2848824	73.373159	15.51981404	822.0589066
4700	0.4823787297	478.086734	256.3526556	67.51982475	15.4843165	817.4435308
4800	0.445138212	492.7331547	240.6205002	83.40174357	15.1673308	831.9227293
4900	0.5084975648	463.1264853	266.5610092	76.57227453	15.13723434	821.3970033
5000	0.596665942	500.8721877	234.6709254	66.01171393	15.32334504	816.8781722
5100	0.6166224758	469.1385217	291.2411704	80.11643792	15.49886931	855.9949994
5200	0.752043494	489.4229627	279.8224812	87.87681612	15.60952388	872.731784
5300	0.9540157992	497.7606143	288.206356	98.70543319	15.49124338	900.1636469
5400	1.151900926	547.51117	286.3189802	126.7535331	15.34968388	975.9333672
5500	1.419233596	579.2829491	321.3236339	165.7240857	15.95782372	1082.288492
5600	2.084317008	573.2509945	380.247755	171.33305	15.8437654	1140.675565
5700	2.973137344	637.1912343	386.2220275	219.2538269	16.82844923	1259.495538
5800	4.223296656	586.5987355	546.7652022	291.1654871	16.98707468	1441.516499
5900	5.650907401	714.5070322	640.5710615	367.1017054	17.60794588	1739.787745
6000	7.239504158	811.3315537	776.0697248	487.3574983	17.99909539	2092.757872
6100	9.111061235	749.932491	982.1531921	494.1535212	17.90098455	2244.140189
6200	9.803175798	872.294677	887.6776045	627.0183634	17.7232589	2404.713904
6300	9.140600639	818.1136098	1048.954154	559.2814219	17.98015364	2444.329339
6400	7.744420112	882.7842013	757.7337541	616.215433	17.14797726	2273.881366
6500	6.160007665	771.1870179	724.5372584	450.0882152	16.48727676	1962.299768
6600	4.625990503	734.9234152	568.1252897	349.5003962	16.18967016	1668.738771
6700	3.348710843	628.7166772	542.4222894	268.4760761	16.39672349	1456.011766
6800	2.307593009	654.6072759	426.3622398	242.9382631	15.7334871	1339.641266
6900	1.789005134	557.3746901	405.7566934	195.631905	15.85601705	1174.619306
7000	1.350584286	560.3271845	345.0262339	156.726217	16.90653735	1078.986173
7100	1.029116709	548.8057144	319.2415387	143.4999505	16.91807469	1028.465278
7200	0.9212753461	516.6089869	290.1240004	121.3095055	16.34598696	944.3884798
7300	0.7275042546	520.3565717	288.5913254	105.7339319	17.00306624	931.6848953
7400	0.6490339053	516.827027	273.1658325	94.70010472	17.15597202	901.8489362
7500	0.589325681	499.0839212	276.6403118	94.33859144	16.86313626	886.9259607
7600	0.5546877837	511.3740245	261.7818121	88.40830691	16.75942183	878.3235654
7700	0.5850234747	516.0194929	250.6684966	76.77751586	16.47449346	859.9399988
7800	0.6096767432	502.9407858	261.696043	76.31691742	16.74557209	857.6993183
7900	0.618355999	506.4996766	262.0174291	90.54551366	17.0807802	876.1433995
8000	0.6824825921	483.0584412	296.4442298	93.55445821	17.39966015	890.4567894
8100	0.7906027312	536.2997006	264.1760991	93.21077151	17.11731718	910.8038885
8200	0.9705615318	493.3551651	321.5526116	104.1574841	17.02110734	936.0863681
8300	1.189920061	544.5756738	278.1418469	145.9230986	17.19570803	985.8363273
8400	1.611526916	521.2306984	345.4449116	141.0718418	17.64717215	1025.394624
8500	2.047662525	592.016184	339.9592197	199.9915548	18.31375056	1150.280709
8600	2.972501969	535.7975019	463.2341955	193.618002	20.07802835	1212.727728
8700	3.713051608	700.7057545	480.3666701	283.2237212	20.65620438	1484.95235
8800	5.04191089	682.6809177	613.4929279	364.4066894	20.66261846	1681.243153
8900	6.447605276	734.8009392	725.9946929	447.8373268	21.26736551	1929.900324
9000	7.963313514	852.7546524	767.9011009	470.0930533	20.86897903	2111.617786
9100	8.871963425	931.3776931	761.567467	525.0532088	19.70799617	2237.706365
9200	8.648122332	787.1001895	913.6836458	587.6171142	20.34566956	2308.746619
9300	7.735215641	823.0155288	802.9826808	545.6831125	20.31304617	2191.994368
9400	6.106407212	841.7624313	730.2025227	478.8544937	21.19040431	2072.009852
9500	4.718421005	683.8170153	728.0425218	430.704771	20.13569063	1862.699999
9600	3.642760418	687.611334	575.4012559	332.6341626	19.04028506	1614.687037
9700	2.923403647	640.2053629	468.0237725	238.0168699	18.06829321	1364.314298
9800	2.166611353	602.2080316	412.2154481	211.0192431	18.10205902	1243.544782
9900	1.594447168	552.4087636	410.8983376	189.958966	18.48618824	1171.752255
10000	1.308525634	589.1252077	322.9083189	150.9543824	18.50973865	1081.497648
10100	1.102942123	539.1918535	321.6675801	133.1255466	17.75904721	1011.744027
10200	0.9633914966	534.0315926	283.9030168	124.7640534	18.48523723	961.1839
10300	0.7741139455	508.1849227	310.9235228	122.5935661	19.07170167	960.7737133
10400	0.7770924411	529.4506708	276.1167858	89.51088422	18.48147923	913.5598201
10500	0.7171902796	515.3851647	276.148315	98.60675408	18.25076978	908.3910035
10600	0.679571423	515.2020394	271.2228402	107.9676456	18.31459702	912.7071222
10700	0.7235466813	532.1600941	257.5083761	94.74828911	18.01524926	902.4320086
10800	0.7344581599	517.5350946	297.5561147	88.55404076	17.85446344	921.4997135
10900	0.7662407157	546.1753844	276.1038907	110.919456	17.73641076	950.9351418
11000	0.9586011135	503.7850897	317.4273776	104.6075799	17.58363166	943.4036788
11100	1.097071438	541.9513712	309.5402639	121.8899581	17.29352985	990.6751231
11200	1.34013271	574.7843167	313.9143064	128.3901633	17.7520901	1034.840876
11300	1.667437402	551.1361875	370.8693506	172.4103092	17.80051988	1112.216367
11400	2.061498157	555.2879261	451.2136379	211.9249991	18.01241017	1236.438973
11500	2.828449424	634.4986077	441.3025218	233.396932	18.46409376	1327.662155
11600	3.780456005	602.7002583	563.7836841	296.8944115	18.77719221	1482.155546
11700	4.821211975	688.6599124	640.1408387	378.5780775	17.90672973	1725.285558
11800	6.188043398	724.7463361	746.0408498	438.8849768	17.52509169	1927.197254
11900	7.253685857	807.1263832	868.2342713	486.48397	17.2385875	2179.083212
12000	7.984313754	854.93649	910.5418599	528.6591711	17.74708833	2311.884609
12100	7.979277651	764.9999738	1002.288899	548.6015531	18.67301911	2334.563445
12200	7.406625427	822.1804946	856.2015132	485.2022775	18.49537721	2182.079662
12300	6.106519471	785.9217354	757.7360655	493.9343239	18.12135555	2055.71348
12400	4.794819134	696.3738318	738.9531106	438.4298503	17.92321673	1891.680009
12500	3.858980294	639.6632408	649.7760772	333.3800768	18.5505648	1641.36996
12600	2.890263738	708.7789402	489.4346413	274.7400719	18.35295969	1491.306613
12700	2.235312456	612.7595158	488.6166997	244.8884169	17.3276718	1363.592304
12800	1.763547069	647.503004	380.0343621	205.7521673	18.45961916	1251.749153
12900	1.473205095	585.6079107	391.3103368	161.1179437	18.15242332	1156.188614
13000	1.246423213	606.0293081	315.9396198	149.1173348	17.11928362	1088.205546
13100	1.123440483	563.4754914	310.9203899	135.9637043	16.87077414	1027.23036
13200	0.9705261868	540.2767703	316.3078725	130.462582	17.12723362	1004.174458
13300	0.9236868934	545.8969271	297.8809759	108.9762522	17.00628033	969.7604356
13400	0.8610860341	550.6443801	288.3849345	104.8505648	16.99598307	960.8758625
13500	0.8365230081	502.2664002	331.35798	106.829197	17.4030971	957.8566743
13600	0.8756138017	525.7247056	300.6935509	105.3970836	17.48992892	949.305269
13700	0.9106439574	525.1563944	311.940339	108.3177443	16.97811292	962.3925907
13800	0.9713939661	531.8494234	322.9272697	113.6882069	16.99811963	985.4630197
13900	1.0869701	547.0085899	317.1023646	133.0873329	17.53401562	1014.732303
14000	1.323268923	523.6391648	359.9905161	132.6990145	17.0855277	1033.414223
14100	1.519903047	576.8432281	349.9168547	164.8551117	17.08581559	1108.70101
14200	2.05268394	574.5572326	364.3060846	162.0469824	17.08837115	1117.998671
14300	2.492128344	559.2883776	462.3737582	200.9647358	16.39490512	1239.021777
14400	3.114187494	622.0062874	476.7871486	256.840532	16.62520839	1372.259176
14500	4.06314206	619.0055148	569.3511948	279.4472162	17.07967521	1484.883601
14600	5.162649133	639.8815459	662.2995625	317.9287946	17.97278218	1638.082685
14700	6.310434086	743.603495	664.9642605	345.2556193	18.76749479	1772.59087
14800	6.701065192	739.721578	868.941492	458.8467586	18.8322989	2086.342127
14900	7.426103833	818.9793958	824.6724267	377.2409136	18.78384646	2039.676583
15000	7.12669198	705.8293303	921.373626	449.4530169	18.88587093	2095.541844
15100	6.127375112	708.3339692	955.9911454	476.9382612	18.05161722	2159.314993
15200	5.27633272	769.8640737	781.1682831	451.169635	17.21801231	2019.420004
15300	4.535457859	709.7386838	704.2473459	345.8750286	15.97722879	1775.838287
15400	3.471869459	719.1819863	616.5086025	336.3119173	16.48257909	1688.485085
15500	3.013646521	660.4184546	532.0776094	246.536677	16.12331991	1455.156061
15600	2.440029588	642.6311388	468.3516412	201.0406703	15.54011523	1327.563566
15700	1.944517476	623.9365006	408.6553026	199.0529838	15.76497225	1247.409759
15800	1.552907251	601.4541203	393.2377793	195.8411908	15.40717361	1205.940264
15900	1.410709339	569.8852734	374.5286628	150.0667653	16.2182978	1110.698999
16000	1.284020545	554.1161332	344.8792704	132.1112458	16.0374549	1047.144104
16100	1.077329474	538.7897146	351.8166947	144.3029884	16.27034792	1051.179746
16200	1.084691103	525.3061103	331.9329871	129.4896045	15.76910988	1002.497812
16300	1.038073504	526.76614	334.6601154	116.8147446	15.84900044	994.0900004
16400	1.024632601	536.9010983	304.5482821	136.7698875	15.81644939	994.0357174
16500	1.073924437	517.8868878	326.9603077	130.4999444	15.40014592	990.7472859
16600	1.109395859	564.1252387	307.1817695	127.6196044	15.53362378	1014.460236
16700	1.178727352	546.854761	341.3021284	144.3032762	16.46771276	1048.927878
16800	1.327128897	575.2536821	335.84465	154.4751064	16.53805384	1082.111492
16900	1.499436065	576.4513699	375.5856044	174.1187706	16.99717757	1143.152923
17000	1.872598569	561.0530588	428.1755695	172.34069	16.60036625	1178.169685
17100	2.162672655	611.8666721	462.8956325	213.2390181	17.17365085	1305.174974
17200	2.634727366	617.3672452	522.5442163	269.3218248	17.04246647	1426.275753
17300	3.470824049	580.1768731	610.5032474	286.0226733	17.80604728	1494.508841
17400	4.361644966	716.1140535	576.1821998	317.8307569	17.38254501	1627.509555
17500	5.209749481	715.2148568	715.1038873	361.6869579	17.45880797	1809.46451
17600	6.393736414	734.9717337	689.6479784	392.949451	17.81508536	1835.384248
17700	6.699098901	603.096956	968.7319487	444.6855353	19.53528539	2036.049725
17800	6.733033851	855.2198072	771.6305292	460.5151395	18.43401468	2105.799491
17900	6.629857012	713.0825435	825.2175058	411.566453	18.57592458	1968.442427
18000	5.83171778	758.7830713	710.9919144	406.4621953	17.71466447	1893.951845
18100	4.566855327	718.7373435	744.7355027	412.465955	18.88039673	1894.819198
18200	4.048146889	723.8761625	543.8085188	344.7080856	18.49398345	1630.88675
18300	3.170157524	632.16195	617.4950264	276.6206453	18.36769633	1544.645318
18400	2.609169503	730.7069157	397.1156489	275.7739113	18.59634368	1422.19282
18500	2.225067605	578.0811266	469.0415189	220.1139956	18.91078709	1286.147428
18600	1.870709467	608.3752586	374.5810643	208.7632019	19.43300794	1211.152533
18700	1.60996917	561.6501204	378.9945997	184.5736545	19.21603854	1144.434413
18800	1.425411856	518.6276875	390.7585853	167.1041739	19.09968352	1095.59013
18900	1.286049968	554.7880945	337.8734411	146.3004895	19.14082795	1058.102853
19000	1.175986271	544.7344694	341.2545656	136.6184156	18.6776163	1041.285067
19100	1.088737226	552.3165843	331.4509288	138.5237636	18.1914446	1040.482721
19200	1.127161307	547.1734923	312.8414236	135.8767797	18.24799901	1014.139695
19300	1.130253799	527.1336167	333.7275879	142.9008241	18.19596469	1021.957993
19400	1.170349118	516.056547	361.0026049	142.0327324	18.09192062	1037.183805
19500	1.330621608	551.0001688	332.3991084	133.4937293	17.34281738	1034.235824
19600	1.443046386	527.2878759	369.2154475	164.0316231	17.11961926	1077.654566
19700	1.664348699	569.9231072	342.8777661	182.0895161	17.95218833	1112.842578
19800	1.919405055	531.1278213	450.3066805	178.0789275	18.21079881	1177.724228
19900	2.216477419	645.8173472	397.7575418	218.4859797	17.91103937	1279.971908
20000	2.73167265	545.370473	555.1193221	235.488756	17.72689556	1353.705447
20100	3.203639621	658.0401846	520.8735513	314.47577	17.13905898	1510.528565
20200	4.022905162	656.4987341	627.6581866	290.9231296	17.08295834	1592.163009
20300	4.456535812	785.5104533	657.7480156	398.2273984	15.70338548	1857.189253
20400	5.598057727	707.8556035	761.0427209	375.4098586	15.74095725	1860.04914
20500	5.833538368	772.9199188	842.5012464	476.1153616	16.07149625	2107.608023
20600	5.993309416	729.1796631	1029.037817	449.0382922	16.18537716	2223.44115
20700	6.231206453	783.038775	856.3609953	460.3299191	15.73284018	2115.46253
20800	5.851566993	667.522339	923.1923462	439.2357287	15.91979325	2045.870207
20900	5.020066576	788.0039006	750.5798689	465.5041763	16.19137275	2020.279319
21000	4.70958209	722.035555	672.2318314	328.3450015	15.99613702	1738.608525
21100	3.696493171	750.322059	592.1590522	356.7535539	15.02226723	1714.256932
21200	3.098865823	693.3990397	580.5303643	295.0011033	14.78221893	1583.712726
21300	2.733291929	647.8395796	482.3097308	271.3755745	13.90139367	1415.426279
21400	2.163220654	630.4311213	487.1478594	244.3895498	14.38829358	1376.356824
21500	1.934691818	633.0054064	418.7339375	202.2207258	13.7792503	1267.73932
21600	1.6612738	541.6713301	463.2058203	204.06004	14.64411738	1223.581308
21700	1.574297473	613.1265385	343.5521797	171.6134583	15.04667672	1143.338853
21800	1.412856912	563.4738356	386.8083654	154.8242933	14.29518949	1119.401684
21900	1.355631692	542.3700871	369.4752764	157.782366	14.97469296	1084.602422
22000	1.287450316	568.7141913	344.7975177	148.5210914	15.69084679	1077.723647
22100	1.220945051	550.4988842	377.3011689	150.4767561	15.47067797	1093.747487
22200	1.335427132	554.3733462	349.279809	145.4190326	15.53718857	1064.609376
22300	1.330001731	549.7335517	381.9797921	155.003558	16.03066581	1102.747568
22400	1.44169538	559.7450173	396.9520037	149.3679253	15.85640036	1121.921347
22500	1.493797905	602.4691892	396.7642337	173.5689989	16.41325505	1189.215677
22600	1.82020266	593.420152	396.7355736	184.7825017	16.28028428	1191.218512
22700	2.132641222	581.9472124	439.4148435	202.2524412	15.91810086	1239.532598
22800	2.375893877	644.9428806	440.813045	257.0972633	15.9650931	1358.818282
22900	3.016976366	592.2209189	526.5273904	251.9126209	16.91755025	1387.57848
23000	3.589958906	584.3685066	616.3638661	279.5737129	16.95631321	1497.262399
23100	4.273690524	633.9210686	632.2946575	323.179143	16.48365333	1605.878522
23200	4.895074374	741.6058384	611.5139495	375.2418915	16.98776004	1745.34944
23300	5.367059692	689.1946868	804.2625555	385.0394389	16.64123131	1895.137912
23400	5.641782532	864.1852065	664.4866397	470.0181191	16.40258929	2015.092554
23500	5.941878763	668.6306358	880.6202221	412.4120642	16.70160477	1978.364527
23600	5.604846001	839.4359822	714.2292335	438.0881174	16.12088943	2007.874223
23700	5.179553164	642.0545074	893.069683	386.8630298	16.09729124	1938.084511
23800	4.524305168	769.822217	697.4635557	387.5436268	17.3213968	1872.150796
23900	4.058750176	629.6634128	732.0145307	317.2962671	16.56520975	1695.53942
24000	3.498764234	707.2962595	525.8031917	311.7156249	15.73331321	1560.548389
24100	2.80550082	664.2889534	561.765298	280.87363	15.96476358	1522.892645
24200	2.516534158	663.4293459	470.3621779	224.9385777	15.85677156	1374.586873
24300	2.080905189	574.041318	512.0284121	226.672046	15.96733007	1328.709106
24400	1.851974723	628.7629315	422.0228611	187.4832018	16.08585349	1254.354848
24500	1.735287922	556.5690466	430.4932417	171.1015554	16.04385934	1174.207703
24600	1.553456941	571.9263692	385.3573009	175.9370456	15.92565592	1149.146372
24700	1.48058556	548.2645278	385.5883812	165.4180559	15.74450634	1115.015471
24800	1.415179923	549.6992025	387.7169163	148.0954038	15.17194846	1100.683471
24900	1.432160471	545.0559932	366.5899912	152.9295074	14.94166447	1079.517156
25000	1.379385545	552.6183332	374.2780535	164.2866868	15.24327996	1106.426353
25100	1.455011266	564.4592402	366.2220223	161.0689014	15.6777035	1107.427867
25200	1.577781841	553.5357467	394.1514285	152.6548086	16.50822252	1116.850206
25300	1.679234689	586.6062453	390.5077108	166.4751111	17.48288205	1161.071949
25400	1.857912291	534.2625142	484.4678867	171.3166895	17.5371173	1207.584208
25500	2.08483742	635.185925	402.6727685	217.4592786	16.58855684	1271.906529
25600	2.404757813	567.9208491	531.9089918	223.1643478	16.12499235	1339.119181
25700	2.871985726	650.4700673	504.9361688	232.7995117	17.1850781	1405.390826
25800	3.229306349	611.6897732	661.5337756	266.3676625	17.7845269	1557.375738
25900	3.893311716	668.075483	640.946694	298.4915498	17.08865363	1624.60238
26000	4.531732862	659.5521437	734.5563191	313.8193332	16.58655783	1724.514354
26100	4.797073257	745.4785959	782.1064329	383.1119977	18.2530305	1928.950057
26200	5.211163616	772.1857973	810.2668502	403.2412501	18.50501511	2004.198913
26300	5.460329592	756.3070649	823.6094339	440.566275	17.15464273	2037.637417
26400	5.290141679	755.8898013	907.527147	409.2656845	18.10291061	2090.785543
26500	5.258194924	758.3050815	772.3399452	411.6435567	19.15304998	1961.441633
26600	4.677651857	752.2521084	755.9917674	405.7289978	17.62035265	1931.593226
26700	4.222955577	715.1498738	732.7539816	350.2380174	17.50432091	1815.646194
26800	3.686812036	700.6150702	641.3527768	348.7482875	17.16745384	1707.883588
26900	3.321262416	690.1492394	560.8220397	283.6549855	17.13103839	1551.757303
27000	2.793300224	632.1774747	552.0192397	286.4813489	17.45292926	1488.130993
27100	2.548578509	614.40091	500.1515922	222.9813661	16.40015538	1353.934024
27200	2.198537417	592.88889	467.9754371	216.8785459	16.17160785	1293.914481
27300	1.934400885	576.5188407	432.7823344	216.8026847	16.8101986	1242.914058
27400	1.681615971	541.4263472	451.0108264	213.2379645	17.63827382	1223.313412
27500	1.620066643	580.1847683	400.1738892	164.6575892	17.44619359	1162.46244
27600	1.429610598	546.2208304	442.4480177	169.9731047	17.65291294	1176.294866
27700	1.416908544	557.3629431	413.8970627	161.590284	17.70274537	1150.553035
27800	1.446911417	532.1416607	423.5856109	158.1308086	17.30934953	1131.16743
27900	1.478417995	582.3900464	383.0549038	151.4145627	17.08553439	1133.945047
28000	1.447894647	577.298495	411.802994	174.6553313	17.15273312	1180.909554
28100	1.70068697	591.1491985	374.8489245	166.076454	17.35004085	1149.424618
28200	1.817671416	554.3932503	438.4484989	186.0271756	17.32444568	1196.19337
28300	2.02048888	609.510738	401.7182162	208.8396317	17.62641248	1237.694998
28400	2.354836824	586.5164624	475.5985097	194.0294647	17.96810596	1274.112543
28500	2.565846406	588.990002	521.5682976	261.0252863	18.64336562	1390.226952
28600	3.193612196	638.5116729	499.9084362	235.4142099	18.76015471	1392.594474
28700	3.577745265	624.7657321	619.7056438	272.9090111	19.40625574	1536.786643
28800	4.137756156	678.9693723	625.1607435	313.0795336	19.07570002	1636.285349
28900	4.322523406	701.782279	763.387254	386.5965106	19.55157079	1871.317614
29000	5.110051346	681.0882134	780.4152187	371.9448341	18.08372198	1851.531988
29100	5.406506788	695.2841941	823.2224812	392.1812816	18.78914399	1929.477101
29200	5.001343541	821.5626011	855.5971431	450.2565444	19.40680695	2146.823096
29300	5.134569836	694.4481524	944.0672636	386.2851336	19.21969657	2044.020246
29400	4.956252451	790.464223	772.2206773	368.0221788	18.5733542	1949.280433
29500	4.238137185	707.9452477	833.1452958	424.7502954	17.75845804	1983.599297
29600	4.249826886	700.4912277	648.2463859	334.0624936	18.31429739	1701.114404
29700	3.659495849	660.6061742	632.3513373	313.0885317	17.94873455	1623.994778
29800	3.283462951	681.7437037	528.6448644	272.2689264	17.74530403	1500.402799
29900	2.754393307	592.2215621	570.7982423	271.0958842	18.55604683	1452.671735
30000	2.404741687	584.6362022	541.5026767	237.3885434	18.46880196	1381.996224
30100	2.109465894	605.0399436	480.1742641	227.265419	16.80366504	1329.283292
30200	2.035771548	566.5899343	466.905189	177.3231556	16.28492908	1227.103208
30300	1.716539402	584.9928878	448.9371231	196.6692705	16.17921739	1246.778499
30400	1.636711209	588.4280177	432.3206919	169.939529	15.88784479	1206.576083
30500	1.498549749	601.4834063	423.814312	173.5468707	15.01470656	1213.859296
30600	1.495705463	589.6417286	433.1381869	156.4953042	15.64825295	1194.923473
30700	1.505302177	605.3270551	407.249128	165.3767519	15.67122906	1193.624164
30800	1.5558376	587.7673139	429.8108512	166.7625031	15.70642859	1200.047097
30900	1.665499868	604.1569325	416.0049574	173.0777972	15.83223441	1209.071922
31000	1.753544263	532.737787	510.9722198	190.3675913	15.7764169	1249.854015
31100	2.011242064	586.556743	469.9536247	183.3806542	17.23728883	1257.128311
31200	2.105196692	593.4531508	513.0224223	228.371541	17.6192183	1352.466332
31300	2.48492598	594.3276035	544.9805916	223.8723011	17.56102541	1380.741522
31400	2.801535489	635.167389	546.5176642	268.6996632	17.63776392	1468.02248
31500	3.395322647	631.0574973	598.0766089	253.6944847	16.54396529	1499.372556
31600	3.702922936	723.3063493	585.850165	326.1150668	17.01595019	1652.287531
31700	4.248260272	603.4390227	777.1013082	329.1103242	17.77335015	1727.424005
31800	4.546681213	835.0115633	645.0816925	371.695177	18.41587635	1870.204309
31900	4.937181894	688.3842718	840.5864095	385.3066277	17.82877758	1932.106087
32000	5.008266993	753.3789494	792.6651182	458.1216048	19.00094533	2023.166618
32100	5.276645401	679.656849	818.8736774	419.540492	20.91675654	1938.987775
32200	4.90267945	788.6872436	750.7788418	421.9946078	19.35291535	1980.813609
32300	4.644647799	682.7161713	804.6814633	386.2602329	19.4038718	1893.061739
32400	4.150337092	753.4695139	673.6170492	389.9712794	18.68037098	1835.738213
32500	3.928575079	669.0353334	655.7887537	307.2543298	19.68131885	1651.759736
32600	3.042112062	751.0979884	617.1914415	341.9707789	19.20868434	1729.468893
32700	2.934931321	651.9012784	613.2932754	254.5641052	19.14847756	1538.907137
32800	2.662143563	685.2291707	455.4885276	270.3022449	19.55090699	1430.57085
32900	2.208722388	571.1880339	575.0232799	266.0744463	18.0621555	1430.347916
33000	2.147910032	654.6285119	418.9511587	223.8982047	17.67920421	1315.15708
33100	1.957837457	584.4994619	471.8657681	201.1244741	18.30193607	1275.79164
33200	1.724691612	609.9854455	433.8604102	216.7063356	18.00031142	1278.552503
33300	1.733890959	564.8227001	437.7179725	199.5968534	18.64667222	1220.784198
33400	1.64071838	620.1423841	394.4250317	187.8535066	18.9382765	1221.359199
33500	1.525994901	552.0436244	476.6911895	206.2387827	18.63658212	1253.610179
33600	1.686382372	580.3095459	416.7157748	190.6448587	18.36589612	1206.036076
33700	1.622638471	591.0776976	450.2066969	205.0798317	18.77222834	1265.136454
33800	1.735900894	602.1904537	445.2571413	214.8993519	18.48542306	1280.83237
33900	1.901340536	597.820561	446.6468435	242.0141685	18.3176818	1304.799255
34000	2.108826367	610.6141718	475.1629208	236.1900101	18.70014715	1340.66725
34100	2.300965237	649.5135817	483.7367673	260.1462454	19.03627901	1412.432873
34200	2.636460798	620.3398715	568.6897725	255.1373881	19.00521487	1463.172247
34300	2.936231108	666.7323569	583.5527764	297.8446021	19.24003742	1567.369773
34400	3.474817105	621.929595	640.0966014	322.2793473	18.45394372	1602.759487
34500	3.736460987	771.3043758	606.5058239	376.8335577	18.46754037	1773.111298
34600	4.220559683	681.2361567	775.4084935	373.9939304	18.86898966	1849.50757
34700	4.468727424	761.3436407	777.7160719	431.2250845	19.750845	1990.035642
34800	4.796621136	699.2166199	871.895408	452.7138897	19.18040403	2043.006322
34900	5.200039713	741.9935501	776.1810813	452.1544181	19.46738718	1989.796437
35000	4.987999026	753.5316018	815.3918622	472.6201878	20.0659841	2061.609636
35100	4.874941743	737.3324956	810.3172004	424.7354473	20.64378232	1993.028926
35200	4.73918004	687.9959921	732.208039	406.6892679	18.81556024	1845.708859
35300	4.220202733	688.1578591	710.4016814	368.0489922	18.34845672	1784.956989
35400	3.510768541	684.1297936	715.5271405	366.1634819	19.86426944	1785.684685
35500	3.320254446	656.9013161	578.6576948	338.457761	19.15885598	1593.175628
35600	2.865941475	619.0417057	610.564952	279.3803066	18.67720697	1527.664171
35700	2.459229779	708.7283048	476.9974427	272.7816078	18.89529267	1477.402648
35800	2.245500675	559.4706607	559.4407172	249.2921743	18.66543942	1386.868992
35900	1.99483202	640.6172069	443.0899122	243.9597233	18.82301517	1346.489858
36000	1.93080116	575.0929365	461.5629732	210.2031965	18.67865107	1265.537757
36100	1.703380402	593.7479097	449.2404094	210.4155966	18.07194807	1271.475864
36200	1.601581607	619.1668508	421.3013448	200.1300726	18.70629251	1259.304561
36300	1.588202968	589.1932979	430.193538	198.7403051	17.73502826	1235.862169
36400	1.665283844	562.1052194	442.8933593	179.0271245	17.58708164	1201.612785
36500	1.615585281	609.3986308	407.0872916	202.2997463	17.63482833	1236.420497
36600	1.790362343	531.4826867	499.2904739	163.7154577	18.02573647	1212.514355
36700	1.826201799	652.5988879	389.8585286	203.4464778	18.03696467	1263.940859
36800	2.003809241	563.5696166	482.9196035	221.9495401	17.93400511	1286.372765
36900	2.167183841	610.5608964	479.0788312	236.5475597	17.71650153	1343.903789
37000	2.411609993	664.2944939	493.1924644	232.4966779	17.58414793	1407.567784
37100	2.625347071	606.1121336	634.9788734	252.6368283	17.2053864	1510.933222
37200	3.12896922	631.085277	589.9349238	301.4579918	17.88518654	1540.363379
37300	3.580621588	675.9007738	589.7245153	336.5835573	18.02882388	1620.23767
37400	4.009046496	629.6338571	754.4156704	320.9553161	17.33329474	1722.338138
37500	4.305932877	648.6833853	755.4809505	424.6592625	19.60692186	1848.43052
37600	4.880880691	729.885485	698.9729983	399.4372897	17.13832436	1845.434097
37700	4.896455331	666.4965889	872.4354882	421.7938871	16.07777544	1976.80374
37800	5.063577913	829.6511524	662.3828137	450.1545922	17.89314843	1960.081707
37900	4.753173385	726.2717162	820.371707	456.8389976	17.3083577	2020.790779
38000	4.865343055	770.0571023	667.5521244	387.8010464	17.62648509	1843.036758
38100	4.167527981	720.0025317	759.5481351	402.1484742	18.46778745	1900.166928
38200	3.888032192	687.1913534	689.9877281	378.93203	18.58923582	1774.700347
38300	3.556279835	644.1965397	664.3080851	326.422493	18.69999789	1653.627116
38400	3.033548605	697.5816602	593.2720912	303.2351194	18.55746045	1612.646331
38500	2.689250063	577.8789759	637.4652576	301.8416193	17.71218385	1534.898037
38600	2.364408717	695.4459291	481.4182232	276.9477713	18.4267679	1472.238692
38700	2.290027371	606.9042404	501.1774826	223.4038827	18.00948093	1349.495087
38800	1.916601558	615.8425865	471.2586987	262.1727316	18.51578932	1367.789806
38900	1.934231914	645.6876369	410.5240603	198.4751459	18.7100379	1273.396881
39000	1.805723027	575.964223	452.9921446	203.2536781	18.66830142	1250.878347
39100	1.783000269	565.8310495	449.4992481	181.6915138	19.41427466	1216.436086
39200	1.664475364	612.4925437	396.1159187	213.3707847	19.27587595	1241.255123
39300	1.739112785	551.5381821	450.2458544	195.9284579	18.43195028	1216.144445
39400	1.818924991	606.3957766	401.2134174	185.4573815	18.73603188	1211.802607
39500	1.777413191	613.0355958	422.6374643	220.6839333	18.49455438	1274.851548
39600	1.930896538	570.4195001	486.1789917	213.9174231	17.80593048	1288.321845
39700	1.977583038	651.2887037	472.4016443	227.1492779	17.79419458	1368.63382
39800	2.297151232	584.7212868	568.6282385	203.9943886	18.78857547	1376.132489
39900	2.361340178	690.1193778	534.9596804	263.3328827	19.3547957	1507.766737
40000	2.79407258	604.9785799	626.569192	277.2914764	20.10624025	1528.945489
40100	3.32299753	682.9523296	550.67639	298.5791989	19.09190534	1551.299824
40200	3.599535438	630.8240091	692.6946234	345.8135876	19.13083978	1688.46306
40300	4.095287152	743.274926	633.752763	340.6532693	19.49040319	1737.171361
40400	4.533357299	628.2601055	782.4304211	364.0093732	19.91320773	1794.613108
40500	4.843209738	687.0864205	770.592289	371.727702	19.41887416	1848.825286
40600	4.843177668	748.6761983	779.7360341	395.1677321	19.26267659	1942.842641
40700	4.920665625	747.0978846	762.3460083	399.257733	19.56628382	1928.26791
40800	4.665908434	726.149826	786.5541645	420.1359154	18.84502974	1951.684936
40900	4.451457454	755.7171309	741.3660338	373.7979073	18.61627762	1889.49735
41000	3.93423015	737.5800245	742.9083819	385.3684255	18.52320579	1884.380038
41100	3.699064756	694.093068	713.4540053	327.255015	18.28601684	1753.088105
41200	3.338729263	704.3954658	641.2721296	293.983455	18.30626023	1657.957311
41300	2.820974943	672.4257101	639.1449843	301.8619227	18.43629762	1631.868915
41400	2.624533521	620.2991489	602.8040237	273.6765182	16.87764125	1513.657332
41500	2.254320242	607.0977533	622.4563332	248.5232714	17.06297053	1495.140328
41600	2.272077853	662.2990251	460.1068089	212.5750975	16.94666306	1351.927595
41700	1.999977341	548.6917301	545.3334282	231.9873297	16.01101364	1342.023502
41800	1.899401752	678.002245	379.6957623	227.0568243	15.72570397	1300.480535
41900	1.91603793	558.5681864	476.4821492	185.9090632	16.32557757	1237.284976
42000	1.781839196	614.3716961	428.9097244	194.839004	16.26991711	1254.390342
42100	1.831609808	560.7405058	448.5560161	200.2037545	15.62717531	1225.127452
42200	1.791909383	614.6557096	413.3965709	206.6108686	15.959424	1250.622573
42300	1.839882367	591.900146	474.5599944	183.353537	16.26025617	1266.073934
42400	1.871296274	637.6046168	438.0213289	218.3245416	15.88206494	1309.832552
42500	2.027747729	557.323493	548.3713621	209.5592904	15.4584378	1330.712583
42600	2.071687332	658.8966057	511.5517849	233.5473505	16.10014982	1420.095891
42700	2.444142607	587.8777379	591.3794139	222.1825101	16.64410338	1418.083765
42800	2.565127361	648.6328492	582.7300024	290.3018087	16.69323502	1538.357895
42900	2.943750784	646.2421511	612.5390307	311.6543423	16.54274357	1586.978268
43000	3.322234613	669.6708708	651.4001649	319.849686	17.19462308	1658.115345
43100	3.946061197	654.3498566	681.2706362	297.1403323	17.34557001	1650.106395
43200	4.17798957	665.7938179	724.3498048	368.4622246	18.21828862	1776.824136
43300	4.63218165	740.5660455	647.056364	382.2589375	17.93952086	1787.820868
43400	4.616597093	725.9902229	743.2658318	437.0770067	17.82476416	1924.157826
43500	4.954188988	724.3856244	727.4518185	387.5508671	18.82487183	1858.213182
43600	4.984765448	704.7673835	703.4115256	403.6469506	19.23135706	1831.057217
43700	4.835440724	732.5566053	669.5706968	367.2187705	19.90012756	1789.2462
43800	4.251242109	683.885874	734.1588517	410.7021365	19.55937821	1848.30624
43900	3.921331661	695.1191427	737.5456657	330.8697548	19.83742933	1783.371993
44000	3.622147176	691.8038698	660.0342707	312.4877826	19.74205099	1684.067974
44100	3.017914255	660.4581037	692.7010253	324.3774313	18.75723634	1696.293797
44200	2.800080298	601.5823353	686.6965398	271.9324375	19.19410375	1579.405416
44300	2.515693685	650.7851936	581.6042195	259.1600292	19.19360343	1510.743046
44400	2.349702776	592.1082283	582.3636981	225.5415217	19.25436577	1419.267814
44500	2.061212138	612.577606	522.7572491	252.0425297	18.32734676	1405.704731
44600	2.041525626	601.9765016	469.3216656	228.0637382	17.58282909	1316.944734
44700	1.987097854	605.4874646	440.7285484	201.647515	18.13818698	1266.001715
44800	1.867338896	625.8616966	416.4527137	202.5545846	17.35188805	1262.220883
44900	1.805609515	586.557413	431.130938	224.07214	17.29606206	1259.056553
45000	1.940574105	556.9414867	436.3834345	193.6339028	18.26405992	1205.222884
45100	1.905646688	603.0425248	424.1186966	190.3708657	18.74143888	1236.273526
45200	1.937489498	544.9213718	483.0416548	216.5434953	17.94922912	1262.455751
45300	2.058915094	602.6042366	434.3331374	226.1111953	17.30955623	1280.358126
45400	2.12178126	563.7505382	511.8778972	248.9925571	17.79888529	1342.419878
45500	2.416492469	606.5992565	480.3927666	242.5148014	17.92237976	1347.429204
45600	2.37591733	659.5894164	554.786455	271.1396169	17.92783869	1503.443327
45700	2.866390682	624.1791128	582.9085993	259.915075	18.21698651	1485.219774
45800	3.00192738	652.512616	624.5272215	328.5442222	18.36454743	1623.948607
45900	3.369669354	677.458766	673.556449	320.810874	17.9083993	1689.734488
46000	3.78611572	640.883177	758.0112907	330.5661352	17.80994627	1747.270549
46100	4.057932023	763.8193988	679.3200321	380.1966503	17.18720209	1840.523283
46200	4.242875503	692.6454686	786.0017665	433.0308944	17.67388855	1929.352018
46300	4.686842804	744.0353971	685.4807773	426.2658135	19.72544281	1875.507431
46400	4.813426599	653.2260253	825.2594801	370.8499123	18.64108734	1867.976505
46500	4.542888657	664.7473321	829.9589635	418.9772512	18.42898578	1932.112533
46600	4.510273864	724.7432298	711.5271089	391.947781	17.884219	1846.102339
46700	4.372925422	680.8779652	671.4034777	367.2816782	17.50840891	1737.07153
46800	3.894966872	674.8967365	668.0283408	366.8564946	18.25881583	1728.040388
46900	3.601452963	706.8435818	578.6831062	332.853843	17.33177353	1635.712305
47000	3.115947634	676.7949043	599.5684763	327.9884359	16.78942438	1621.141241
47100	2.842382757	662.5207263	568.8506771	290.6894789	17.0261911	1539.087073
47200	2.526410361	576.9106679	590.8496344	308.6945	17.83001273	1494.284815
47300	2.501049512	607.352986	492.3506364	252.0842502	17.3639106	1369.151783
47400	2.07338466	596.8954189	542.7451921	257.1659586	17.52072702	1414.327297
47500	2.039909002	603.5510948	467.0879619	251.0139942	17.34259503	1338.995646
47600	1.92229143	572.5846312	508.437195	221.4891329	16.39199796	1318.902957
47700	1.933940471	620.4318179	430.2627311	206.8351298	15.26506822	1272.794747
47800	1.823207861	588.9456844	450.8356368	237.2484442	16.06937355	1293.099139
47900	1.886977098	588.1179071	452.7573485	214.233709	15.54315914	1270.652124
48000	1.953949551	618.9253926	429.9334588	204.0903248	15.70713053	1268.656307
48100	1.994903557	580.1735578	476.6224836	224.3549917	16.09502934	1297.246062
48200	2.099058943	598.8898737	462.3048029	246.0708175	16.13556348	1323.401058
48300	2.353975949	589.3552421	491.7192636	224.0464653	15.64215481	1320.763126
48400	2.462178973	620.8713823	490.2865205	268.6662392	15.72240432	1395.546546
48500	2.700672603	605.0797203	568.5255432	258.2991595	15.90978837	1447.814211
48600	2.966929726	680.0294055	535.9379557	280.9029245	15.44705449	1512.31734
48700	3.124097418	650.6410264	662.4502063	303.8874225	16.11234952	1633.091005
48800	3.448633242	709.9394205	644.4709856	328.2016052	17.1721874	1699.784199
48900	3.68836365	653.0626163	786.7373499	342.9824272	16.0490494	1798.831443
49000	4.101023789	743.498031	673.4323105	380.023104	17.35560113	1814.309047
49100	4.233915647	665.5357073	828.9757015	382.965178	18.50404671	1895.980634
49200	4.325715175	756.5338488	730.5474834	432.4412741	18.55961849	1938.082225
49300	4.448491235	720.3922307	779.1327178	389.3217757	19.28818589	1908.13491
49400	4.321651304	735.7275732	761.8946561	390.1256891	20.00246617	1907.750385
49500	4.127122798	708.6503964	769.5332312	380.3262807	19.59300008	1878.102908
49600	3.689605999	782.2448791	718.1823503	381.536962	18.34342599	1900.307617
49700	3.700207387	654.8124212	735.5160373	316.7942124	16.89215085	1724.014822
49800	3.490855176	713.3996907	594.2503146	297.9650939	17.26637442	1622.881474
49900	3.058782989	631.9651053	643.7287376	311.1787596	16.53041342	1603.403016
50000	2.884693531	658.5979104	551.6621923	279.2207101	15.87322415	1505.354037
50100	2.560042105	654.1994966	538.4838648	267.4576255	16.93767894	1477.078666
50200	2.493068491	625.3617596	505.5473942	228.3608855	17.04931234	1376.319352
50300	2.259863163	577.6335052	538.3023479	225.3920007	16.83736761	1358.165221
50400	2.11382102	592.8552273	492.7795293	229.6876824	17.44850599	1332.770945
50500	2.076826667	613.9511419	446.7299411	209.6783054	17.10740906	1287.466797
50600	1.929957876	547.1630765	517.9664079	223.3104591	16.56625025	1305.006194
50700	2.078149875	607.8309982	402.1421817	206.2588353	17.13218545	1233.364201
50800	2.011285331	535.7700635	501.5454705	208.3424382	16.09626556	1261.754238
50900	2.011310482	632.8195764	432.6387154	203.7419848	16.58313438	1285.783411
51000	2.0782602	568.0409645	523.9049012	195.4699425	17.6397797	1305.055588
51100	2.094168175	631.7289648	479.8452157	235.9641331	16.89261296	1364.430927
51200	2.361565634	626.1871026	486.0435771	223.6089442	16.92686606	1352.76649
51300	2.429116517	665.1927021	490.2801585	266.1462457	16.98237334	1438.60148
51400	2.660422857	552.170211	647.3721791	270.2289569	17.79147532	1487.562822
51500	2.862777699	696.2305575	568.0165993	281.6148197	18.10194715	1563.963924
51600	3.138259913	585.9064726	764.6622871	270.9577698	17.49106225	1639.017592
51700	3.409630675	700.5237657	667.3348591	328.9037376	17.13390052	1713.896263
51800	3.794396793	629.5604056	766.1693039	339.1632597	17.37042846	1752.263398
51900	3.968688686	711.9460389	742.4436639	370.2414966	17.41387782	1842.045077
52000	4.282956686	671.693314	794.1416955	364.1703457	16.96795178	1846.973307
52100	4.357307404	728.5103289	754.9850791	387.5011096	17.41534621	1888.411864
52200	4.380370789	729.8830071	754.2209212	391.1626944	17.9353475	1893.20197
52300	4.300630532	782.9586906	699.1058155	378.7249944	17.75847298	1878.547973
52400	4.235438214	673.8433515	763.9466602	350.590263	17.44848836	1805.828763
52500	3.958741073	677.1466956	704.682912	369.4201492	16.50389819	1767.753655
52600	3.617368789	671.3429871	698.9012098	342.5070865	17.17467778	1729.925961
52700	3.386912581	637.9347164	679.1510311	303.715163	16.77246046	1637.573371
52800	3.077103885	710.4602442	527.179355	325.5215872	17.46641342	1580.6276
52900	2.734203245	607.8789619	653.5578244	276.3041011	16.90922289	1554.65011
53000	2.616749096	683.9931053	512.0783655	244.6300264	16.43905449	1457.140552
53100	2.196613144	607.6351725	604.3535517	267.052866	16.27414567	1495.315736
53200	2.15237055	616.2731336	544.2292771	238.468438	16.75110878	1415.721957
53300	2.118370933	618.934811	504.1304414	217.0239933	17.10070892	1357.189955
53400	2.064245573	644.0255424	441.8425685	223.2813057	16.41631679	1325.565733
53500	1.984006191	565.3381401	520.8232028	221.5483861	16.67291392	1324.382643
53600	2.031468514	615.2123823	448.4528467	214.0371462	16.94837149	1294.650747
53700	1.961399523	541.4661333	572.6367099	197.4444105	16.97970458	1328.526958
53800	2.067302614	634.1358843	442.6622855	222.764265	17.10968237	1316.672117
53900	2.131501803	551.3562631	532.6698818	238.054522	18.12044937	1340.201116
54000	2.268885866	622.3923198	448.4963557	269.3181095	17.71673037	1357.923515
54100	2.621170575	595.2192766	485.9777048	223.0327724	17.51392229	1321.743676
54200	2.513978739	634.4847054	550.0457385	270.2963882	18.34589811	1473.17273
54300	2.939992711	586.9065613	587.5723457	255.8986979	18.59509431	1448.972699
54400	3.147672772	633.2352939	580.549047	289.5857061	17.79010804	1521.160155
54500	3.216176635	741.0071994	578.8568157	312.9694128	17.64801689	1650.481445
54600	3.591693559	657.8697491	668.1952844	329.6256551	17.75113996	1673.441829
54700	3.911041651	695.8040179	640.7830812	359.1464766	18.34961648	1714.083192
54800	3.732722489	659.3906393	837.9457317	397.7160472	18.54378781	1913.596206
54900	4.150242966	779.7653837	681.3438758	376.2222645	18.95679427	1856.288318
55000	4.301775828	610.1488391	847.1677231	374.7318041	19.57880233	1851.627169
55100	4.055691992	775.6790773	708.2812119	437.8116691	19.53363809	1941.305596
55200	4.237837981	698.3256618	725.9185834	377.4494958	17.93359679	1819.627338
55300	4.053181896	763.5562194	622.6938387	385.9201712	18.20203038	1790.37226
55400	3.830947123	645.7539023	712.1416003	364.8032386	18.77279261	1741.471534
55500	3.579816251	681.4005522	634.4178766	344.9142083	19.26980799	1680.002445
55600	3.309726593	643.8245444	668.1807265	283.5509336	18.73266814	1614.288873
55700	3.034706527	638.5758857	599.383798	303.7664646	18.34921796	1560.075366
55800	2.770603255	624.9637218	566.9551468	296.6164	18.5634105	1507.098679
55900	2.5425611	679.4978781	503.9104526	261.6446301	19.02075913	1464.07372
56000	2.405773044	573.9132833	550.1005044	265.4536399	18.41951333	1407.886941
56100	2.286452196	649.6332308	468.1431844	229.0369481	17.79378365	1364.607147
56200	2.091728174	629.0662626	476.3201429	246.4086952	18.26797983	1370.063081
56300	2.010805418	570.9286443	523.5582708	241.5113507	18.55697147	1354.555237
56400	2.070016564	613.0825088	475.7203275	198.8395491	18.67397389	1306.316359
56500	2.095359648	595.0057969	474.7657353	201.437978	18.36746925	1289.576979
56600	1.987262134	583.0622483	487.4021859	253.1523877	18.10624989	1341.723072
56700	2.212235897	591.5652886	475.5807086	204.6614573	18.14887412	1289.956329
56800	2.097997702	610.6004607	518.2932295	238.683663	17.92215523	1385.499509
56900	2.244501559	598.7163767	525.4688079	258.409217	17.354264	1399.948666
57000	2.579962183	627.1179059	478.5667025	245.6611462	18.11504866	1369.460803
57100	2.673969115	578.743873	580.8594813	270.7545256	18.56791441	1448.925794
57200	2.821785158	683.8071506	544.4075268	278.8531996	17.96914951	1525.037027
57300	3.120699773	624.7753794	600.3630022	314.9914676	17.38857434	1557.518424
57400	3.377103781	696.4782582	561.2639784	342.8894477	18.30605467	1618.937739
57500	3.58104471	672.484466	624.26044	383.7197317	18.8629672	1699.327605
57600	3.765319817	699.6848674	699.672279	363.2678463	17.85186845	1780.476861
57700	4.063383077	745.4251469	683.0295941	352.6510107	18.60502342	1799.710775
57800	4.320553287	703.929338	684.5345073	393.4006255	18.06596008	1799.930431
57900	4.129604984	655.7009691	801.4963576	438.5316082	16.8550266	1912.583962
58000	4.207843294	748.8996987	698.9469494	405.2418707	17.70227138	1870.79079
58100	4.256512904	694.3700752	696.5915588	376.192209	17.60122773	1784.755071
58200	3.868283013	635.4447199	757.1869818	410.4414707	18.03553563	1821.108708
58300	3.650519175	751.113182	607.8665237	385.266876	17.56801349	1761.814595
58400	3.593232398	636.023576	654.5896772	317.183862	18.09945599	1625.896571
58500	3.172961892	675.7810556	593.0043407	325.0847615	18.61638924	1612.486547
58600	2.815088764	613.9250211	654.2419314	304.329293	18.79863857	1591.294884
58700	2.711478092	629.7833003	556.8937548	284.6269511	18.52669204	1489.830698
58800	2.546838701	589.4299604	537.5416631	282.5412736	18.74723787	1428.260135
58900	2.407099526	652.7665935	436.1444211	265.2657079	18.58693052	1372.763653
59000	2.143273812	591.3492632	523.5563451	257.0355564	18.11047227	1390.051637
59100	2.152394221	666.1234441	395.5755079	244.3703078	18.82357964	1324.892839
59200	1.96801851	546.6684596	552.6352811	233.0371672	19.35221511	1351.693123
59300	2.023375634	609.8136653	468.5964391	212.1691586	19.7320268	1310.31129
59400	1.914320267	607.4474752	470.0996207	254.2993893	18.34007513	1350.18656
59500	2.085414346	608.0622992	465.8421149	213.717249	18.87170713	1306.49337
59600	1.941680393	652.3808592	478.8050985	249.7331059	19.09974323	1400.018807
59700	2.216139065	580.397075	532.3792721	228.4240551	18.82700969	1360.027412
59800	2.378904804	655.6773656	456.1464547	250.2843574	18.60682672	1380.715004
59900	2.501202701	601.5380518	573.1302007	247.2345572	19.40293946	1441.305749
60000	2.752361138	691.2929312	503.8080225	261.1548449	18.10069059	1474.356489
60100	2.841545639	601.7361582	640.7672596	321.4837817	18.30596031	1582.29316
60200	3.447846377	696.6066255	518.06542	279.2061894	19.35887796	1513.237113
60300	3.425845326	619.1915665	699.2163038	346.6762621	18.35882884	1683.442961
60400	3.84912672	677.6076508	637.1229637	345.5428394	18.03717404	1678.310628
60500	4.025000537	682.2908809	712.2051546	342.9277445	17.67137581	1755.095156
60600	3.968226584	794.4518035	646.565128	426.0955634	16.88818539	1884.00068
60700	4.279947702	689.7434433	750.8896213	379.6511183	16.49197868	1836.776162
60800	4.171711745	773.8392726	658.9150415	445.9422174	17.76403297	1896.460564
60900	4.086845833	697.1969053	813.718722	366.7446888	17.29844212	1894.958758
61000	3.898777908	757.2690078	713.0952432	397.6524217	18.41921419	1886.435887
61100	3.844970861	616.3012726	793.2509335	354.2225878	17.61301776	1781.387812
61200	3.411664992	654.191487	747.2191016	377.8229348	17.96130224	1797.194826
61300	3.376565667	694.3586132	627.7070961	313.0764345	18.17614791	1653.318292
61400	2.994315488	648.4341424	645.9992057	330.8483971	17.92957059	1643.211316
61500	2.972646736	629.0840958	583.8994549	272.633701	17.32226002	1502.939512
61600	2.632987658	671.0308559	518.4151188	287.0797105	16.78404637	1493.309732
61700	2.597903598	638.506998	492.9468839	246.7673055	16.54554925	1394.766737
61800	2.356892736	663.4737616	455.9520579	254.8517773	17.21476135	1391.492358
61900	2.231825166	624.8348841	482.9886691	239.4163984	17.18029825	1364.42025
62000	2.181686905	630.019581	462.5167668	221.4729293	16.85501845	1330.864296
62100	2.12612504	593.5205182	486.6647835	219.5299583	18.14111399	1317.856374
62200	2.151850702	600.1569019	460.7828033	214.3300413	18.51561456	1293.785361
62300	2.008244333	585.8139212	506.5638432	242.2009759	17.19304275	1351.771783
62400	2.212028628	625.6555869	478.3154405	180.1252952	17.18827224	1301.284595
62500	2.057754934	609.5120964	530.6262568	243.5592515	17.72563687	1401.423241
62600	2.352861672	567.7027648	539.8204764	231.6653396	16.72083177	1355.909413
62700	2.390378885	666.0335966	498.7976621	243.6201254	17.02367973	1425.475064
62800	2.51481064	635.4545693	576.9726209	246.5391301	17.41854752	1476.384868
62900	2.618322664	643.7532861	608.1602628	286.1785405	17.03802817	1555.130118
63000	2.993508804	685.1359436	578.1204832	270.6214882	17.02840092	1550.906316
63100	3.030320212	648.8220907	696.5126157	318.5086483	17.03450351	1680.877858
63200	3.423755189	643.1951074	727.7908639	292.4553244	17.51653301	1680.957829
63300	3.673803647	712.1625768	683.0607653	318.2682148	17.34478856	1730.836345
63400	3.814719847	638.9178426	790.1558769	353.1866065	16.89990812	1799.160234
63500	3.778853234	802.5388614	679.8210474	410.60445	17.31108213	1910.275441
63600	4.387798263	647.0902482	762.3247764	319.7666894	16.62943683	1745.811151
63700	4.108137502	821.2961176	634.9483902	392.6210946	16.75439704	1865.619999
63800	4.337802698	637.2528092	763.8788784	328.9660548	16.63536216	1746.733104
63900	4.242767006	691.6302472	634.439822	352.0916975	17.64302465	1695.804791
64000	3.917010309	659.2676791	692.793414	323.3159819	17.9005947	1693.27767
64100	3.506398616	656.9593275	715.4734375	310.5899973	17.26724365	1700.290006
64200	3.242430126	645.428419	671.9336849	316.4744816	17.37615469	1651.21274
64300	2.923586871	666.3585758	637.5594415	308.5588551	16.97918855	1629.456061
64400	2.979557586	620.5110845	589.3854277	244.6026462	17.54221549	1472.041374
64500	2.679171067	695.6583363	501.2600349	240.7128378	17.56746362	1455.198673
64600	2.426767274	648.7686807	508.1934993	270.9988737	17.77335798	1445.734412
64700	2.428701844	625.2627985	475.0976238	240.023181	16.97382824	1357.357432
64800	2.224399555	621.8517718	492.1805757	225.6362758	18.96866497	1358.637288
64900	2.084927335	593.677309	538.1562203	209.1126287	19.07539015	1360.021548
65000	2.142050409	631.90935	443.7340101	212.1499396	19.12874332	1306.922043
65100	1.954463261	559.2680567	569.6001887	216.6522709	19.20753921	1364.728056
65200	2.016878582	635.2038064	470.7717993	223.8858002	19.25792941	1349.119335
65300	2.23452362	582.3753235	495.9560781	199.301664	18.18949399	1295.82256
65400	2.231309534	636.6018719	473.7828817	215.0355293	17.89029431	1343.310577
65500	2.309929571	643.5319313	473.207801	243.5217622	18.60685629	1378.868351
65600	2.51044717	597.2480971	533.8913373	238.0962584	19.67834601	1388.914039
65700	2.552960403	629.7673671	551.6773146	276.3240599	18.80356322	1476.572305
65800	2.909924342	644.5161304	557.3542502	247.1018883	17.59829251	1466.570561
65900	3.093817538	634.3254823	619.1975306	264.7236429	18.46826223	1536.714918
66000	3.163039104	628.3610545	716.8869957	289.1932901	19.07283425	1653.514175
66100	3.561077193	696.2252118	622.2645092	317.5740166	17.78834044	1653.852078
66200	3.777674153	703.8697158	669.0026297	322.9839878	17.32184694	1713.17818
66300	3.837376404	710.7076959	748.845748	325.5555941	16.91531655	1802.024355
66400	4.225285751	641.3186278	728.218725	346.1933757	17.94202413	1733.672753
66500	4.227588501	684.1737629	737.4898402	326.9825323	16.96556212	1765.611698
66600	4.052824968	708.6121484	751.9150021	338.063114	16.62146861	1815.211733
66700	4.160920669	692.0742176	651.1467113	356.203295	18.42396168	1717.848186
66800	3.919216652	650.8782353	730.6376829	315.3544807	18.21685898	1715.087258
66900	3.770374197	656.3374386	657.0818621	315.6574379	18.10427429	1647.181013
67000	3.465698795	662.9944008	641.7009247	297.9554861	17.52514578	1620.175957
67100	3.178894387	666.8851436	625.9570349	271.5432702	16.47568711	1580.861136
67200	2.783130261	663.4847509	578.9077207	335.0247101	16.79478319	1594.211965
67300	2.790346742	671.435609	542.5485758	235.1801472	17.01665118	1466.180983
67400	2.370081497	635.3742187	606.3497816	254.6443869	16.92367374	1513.292061
67500	2.363590639	593.8740546	580.8435831	232.0477382	17.06680827	1423.832184
67600	2.087275094	667.0267867	528.9096874	240.8006222	17.78734517	1454.524442
67700	2.169366693	608.3224588	538.2023156	206.5937404	17.46562898	1370.584144
67800	2.102623665	656.294762	484.0719179	200.9939071	17.97954716	1359.340134
67900	1.985126709	618.1012561	533.7255841	215.3175696	18.70650644	1385.850916
68000	2.110697408	660.3334372	448.19721	214.0568375	18.70055743	1341.288042
68100	2.268563153	580.5332542	497.3295245	207.6060925	18.13296387	1303.601835
68200	2.272995553	624.3937518	461.2664217	237.3441106	18.17091808	1341.175202
68300	2.395988734	581.446379	546.6193054	206.9424304	18.15415839	1353.162273
68400	2.494035405	658.4918735	486.9038087	227.7787939	18.07066335	1391.245139
68500	2.775074365	588.0381719	545.781198	228.7871825	18.2654693	1380.872022
68600	2.780189795	649.1441494	529.9022729	289.7384874	18.1543573	1486.939267
68700	3.142729465	575.3739244	641.9615904	240.2033425	17.26903584	1474.807893
68800	3.278435778	665.445433	605.689251	270.0021507	17.10333952	1558.240174
68900	3.464588041	654.3319763	662.2972234	287.9292892	17.0896982	1621.648187
69000	3.469967624	687.9113119	691.9724939	350.3323906	16.78402662	1747.000223
69100	4.044453134	715.8646745	617.272877	295.7814045	16.34432975	1645.263286
69200	3.739510073	718.600833	760.3429315	346.0732526	16.49830051	1841.515318
69300	3.88715258	681.9563338	776.1643147	360.6123059	15.59339833	1834.326353
69400	4.11153415	687.9095467	689.348217	366.6007837	15.90058189	1759.759129
69500	3.68500957	745.7383226	730.8573773	394.6125603	16.33164989	1887.53991
69600	3.941914259	662.3587374	738.5671765	303.599478	16.61792595	1721.143318
69700	3.515490841	674.1629267	728.6145516	362.2077392	16.17966492	1781.164882
69800	3.510952762	667.742575	672.9437652	307.80339	16.09465298	1664.584383
69900	3.398413514	606.4544979	669.9341523	281.9551375	17.06673959	1575.410527
70000	3.145664362	649.8702586	584.1167014	283.2051208	16.83579801	1534.027879
70100	2.684115657	647.9086255	616.6261377	303.2214808	16.99426622	1584.75051
70200	2.688808747	691.5439923	515.2607841	252.083596	16.52520952	1475.413582
70300	2.537077463	611.8303109	552.0930916	255.7971279	15.55083138	1435.271362
70400	2.450802792	628.1563433	497.3994371	247.8272533	15.94260289	1389.325637
70500	2.234821248	673.7646639	490.1185287	231.166721	15.93946102	1410.989375
70600	2.323160592	596.2658254	501.0116768	221.7673465	15.878479	1334.923328
70700	2.058378925	609.1514994	524.7631183	258.46792	16.85950676	1409.242044
70800	2.133170603	620.2858418	507.4035569	230.3787516	18.11175371	1376.179904
70900	2.197371559	631.8274373	498.2038135	218.1389552	17.36473747	1365.534943
71000	2.254178438	567.9962767	542.3290594	248.5929837	17.12451035	1376.04283
71100	2.32720262	637.679167	502.1484783	241.7843061	17.14454806	1398.756499
71200	2.486058035	631.3711873	496.6767733	263.1285194	16.90625293	1408.082733
71300	2.747859228	599.2196547	525.4730929	255.6076368	17.47330883	1397.773693
71400	2.707434897	619.6277097	589.838357	284.7479691	18.21738188	1512.431418
71500	2.849784965	671.7908401	589.6474701	293.1174434	17.19657877	1571.752332
71600	3.079894076	666.0898365	622.6614873	305.5575675	17.80169755	1612.110589
71700	3.358545156	665.5256236	619.5665729	335.0565104	18.64771952	1638.796426
71800	3.659686359	655.858552	644.0279941	338.8264855	18.22628794	1656.939319
71900	3.703641399	730.0753899	646.3542328	358.5232825	17.87936588	1752.832271
72000	3.736904408	679.9387948	733.9942778	401.9789008	18.7061489	1834.618122
72100	4.192325685	680.9370783	678.6898375	344.8599561	19.79150763	1724.27838
72200	4.018161753	700.9704445	706.4687542	384.8181648	18.50862607	1810.76599
72300	4.190690236	703.5445571	671.3811807	331.796994	18.73410184	1725.456834
72400	3.979443957	680.0363349	669.8292456	373.0958497	19.12891018	1742.09034
72500	3.806146734	681.961446	634.3967257	374.9958869	19.56092296	1710.914982
72600	3.607792721	669.4483717	635.6371764	343.2384652	19.56482515	1667.888838
72700	3.286059383	647.2574272	634.9061553	357.3619103	19.92768198	1659.453175
72800	3.237399571	669.4732886	545.9515841	315.7017668	18.72761996	1549.854259
72900	3.039233813	628.2217293	568.0665704	279.2960057	18.46371871	1494.048024
73000	2.748304642	679.6183244	506.0475734	275.9739761	19.18371608	1480.82359
73100	2.506709004	606.1098105	560.1081892	281.6332444	19.35128531	1467.202529
73200	2.393013496	571.2331942	579.7212551	252.0301375	18.54684044	1421.531427
73300	2.326180902	644.3572082	480.1519027	231.877794	18.79372851	1375.180633
73400	2.144272946	629.9988325	497.6072171	244.8261359	18.53062094	1390.962806
73500	2.220840198	596.8983309	489.4083264	222.5108659	19.1615108	1327.979034
73600	1.982331203	613.2536228	525.4865363	242.4071641	18.95269088	1400.100014
73700	2.184508227	614.2918205	476.6461364	218.4771804	18.5613827	1327.97652
73800	2.127859991	572.1433072	540.5699637	239.519198	18.70370308	1370.936172
73900	2.290996276	604.1726668	476.8198553	250.665772	18.90880006	1350.567094
74000	2.454177948	590.4351018	506.8047985	232.2474844	18.61034948	1348.097734
74100	2.471929073	628.6561558	517.2863907	253.6400606	18.85457465	1418.437182
74200	2.704733024	614.6125438	551.6847941	238.1266728	18.2970435	1422.721054
74300	2.820039662	605.0166321	603.5620661	261.8713787	18.18169297	1488.63177
74400	2.986125666	662.8563197	575.143752	289.9528804	18.07536933	1546.028321
74500	3.23889878	680.4529628	572.1660109	310.2184836	17.49406382	1580.331521
74600	3.598904745	643.5146332	626.8647131	287.3594024	18.50381606	1576.242565
74700	3.565868741	634.5155659	727.809811	327.3221163	18.79714096	1708.444634
74800	3.762663661	648.5665065	708.517735	357.9281716	18.46186198	1733.474275
74900	3.944319529	674.6346745	715.4478378	332.7090061	17.8133144	1740.604833
75000	3.905998252	701.9239983	735.9234704	336.2453374	17.2811408	1791.373947
75100	3.839356685	757.3039913	639.1708975	402.4311765	17.68917483	1816.59524
75200	3.856804068	679.2269102	705.0407735	376.4472003	17.71654744	1778.431431
75300	3.597501971	712.516726	727.9386364	360.3735064	16.93743176	1817.766301
75400	3.635941664	740.0643044	603.4077007	360.1846922	16.05808417	1719.714781
75500	3.433330608	620.5671765	706.7996458	348.838664	16.24919251	1692.454679
75600	3.392964984	694.1265812	585.6185875	296.9904299	17.48024252	1594.215841
75700	3.093861395	664.0703453	595.4261522	305.7047724	17.38192269	1582.583193
75800	2.924748741	626.2068955	619.5549576	267.7735929	17.20727242	1530.742718
75900	2.652063561	675.9168664	560.8426085	273.9200491	17.64671445	1528.326238
76000	2.706992879	572.1014959	583.1465002	240.9497947	17.43466021	1413.632451
76100	2.323219483	660.8395842	532.4319526	267.9325706	16.8949095	1478.099017
76200	2.323020667	638.4307504	528.5165635	236.4806808	16.73106301	1420.159058
76300	2.151237971	581.3039699	604.9479777	237.0959037	16.69922311	1440.047074
76400	2.27377057	616.3293503	510.5989985	222.5977267	18.06218778	1367.588263
76500	2.264154664	617.7607346	496.5206121	227.9347828	17.25124826	1359.467378
76600	2.339101992	560.2378994	541.615109	216.4718181	17.27627575	1335.601102
76700	2.205389046	670.9124378	476.2655004	239.8699008	17.91017291	1404.958012
76800	2.440303589	553.6037607	571.547214	211.8399415	18.07021644	1355.061133
76900	2.442175615	621.9510386	513.6699781	253.4322464	17.72434356	1406.777607
77000	2.550816012	590.5906055	580.7119721	246.0068227	17.94271247	1435.252113
77100	2.74439034	658.2097474	502.7016999	268.7927319	17.73844565	1447.442625
77200	2.824589425	647.5998025	552.6000807	301.2062314	17.63535531	1519.04147
77300	3.064387134	669.0591121	571.1892626	280.9559977	18.20691905	1539.411291
77400	3.35688101	648.1933087	615.5445384	265.7033289	18.77343081	1548.214607
77500	3.280537205	690.1543161	641.0067898	347.2098813	17.70996247	1696.08095
77600	3.55474345	566.5930785	773.3223425	346.9068788	18.53078082	1705.353081
77700	3.699902422	752.2847558	629.2413148	350.7982435	18.24820618	1750.57252
77800	3.714368806	641.1121244	808.8398085	348.8862742	18.22561616	1817.063823
77900	4.02913352	714.1404673	651.4937779	355.2059487	17.74730848	1738.587502
78000	3.862156322	607.7674191	809.2713759	367.4169546	16.87964579	1801.335395
78100	3.636295568	744.7712821	698.9326563	391.6739569	17.85164565	1853.229541
78200	3.854312609	706.7645184	638.1192449	350.0128992	19.16286987	1714.059532
78300	3.589104075	624.8451348	737.2960961	345.6275758	18.11627369	1725.88508
78400	3.46267166	726.1405497	605.0241109	322.8156113	17.63221542	1671.612487
78500	3.130875894	643.7424357	681.4568998	341.0923918	17.29868762	1683.590415
78600	3.045042491	613.6467215	679.5564534	296.432229	17.7101094	1607.345513
78700	2.807935696	665.0477461	596.1055158	310.4589953	18.0363915	1589.648649
78800	2.832847198	646.7338854	572.8750895	247.6889149	17.24995658	1484.547846
78900	2.659484902	641.1350559	536.9910938	265.5382806	17.04113487	1460.705565
79000	2.44253733	693.8567833	487.8909023	272.2789209	16.58804724	1470.614654
79100	2.417608895	585.5986473	591.3313755	230.5364149	16.02207372	1423.488511
79200	2.386178278	667.6255099	474.5525171	235.7297475	15.85512937	1393.762904
79300	2.240309814	582.6973333	559.6775043	264.4125364	15.78140435	1422.568778
79400	2.341236061	649.5628067	484.3468413	226.9839381	15.87559726	1376.769183
79500	2.330439506	582.7502226	558.7060361	229.9725692	16.73893244	1388.16776
79600	2.255652237	655.8433386	499.503307	267.05325	16.25544537	1438.655341
79700	2.42506254	588.0598806	580.7763819	231.5028203	15.30598559	1415.645068
79800	2.37149218	648.7221307	552.9516624	275.1952425	15.45148714	1492.320523
79900	2.630824688	602.1389894	595.2151629	252.6465891	14.53914432	1464.539886
80000	2.675418173	667.7196672	565.8386807	283.997641	14.29384864	1531.849837
80100	2.910853605	660.4797656	575.3711526	290.4004268	15.19375238	1541.445097
80200	3.139407504	657.7617644	606.1665821	279.9552666	16.14553109	1560.029144
80300	3.214760093	676.2218967	652.4202549	299.1838004	16.23780815	1644.06376
80400	3.428043806	600.5031681	720.2944816	330.8441273	16.80391962	1668.445697
80500	3.455906062	706.8760523	707.4862815	322.4398401	17.22032287	1754.022497
80600	3.912286255	628.2329978	722.9761949	297.2104267	15.66314538	1664.082765
80700	3.856542598	704.7695727	674.3418247	345.6308867	16.81024812	1741.552532
80800	3.933901322	663.4486068	730.2398055	329.9071611	16.69387312	1740.289446
80900	3.878269711	709.400812	675.8283373	351.7337778	16.62473134	1753.587658
81000	3.996512076	642.579772	725.5805565	283.4883171	17.39237658	1669.041022
81100	3.755097525	652.5467775	708.3738817	311.1125101	17.30272741	1689.335897
81200	3.470434753	661.917036	707.5544603	316.0353953	17.01769773	1702.524589
81300	3.204226196	689.8699468	664.4786173	331.4923086	17.02904748	1702.86992
81400	3.176842412	634.7880153	679.2417381	274.9499825	16.58918953	1605.568925
81500	3.045563717	655.5428665	585.5689456	286.0392618	16.18836613	1543.33944
81600	2.763160865	616.2851479	625.8356022	284.5327225	16.67591147	1543.329384
81700	2.734645604	632.985073	556.4145611	257.0587415	17.30120531	1463.759581
81800	2.60168137	631.6362928	520.2759222	260.8575714	17.89525791	1430.665044
81900	2.286613883	623.1361478	587.1186036	254.6875095	18.595263	1483.537524
82000	2.374677496	635.966041	504.7111029	243.7502281	18.14179667	1402.569169
82100	2.292898068	586.3589117	558.0255807	236.57532	18.05848124	1399.018294
82200	2.16740116	623.2243578	541.3521017	246.4544768	18.97854565	1430.009482
82300	2.325590427	622.4147424	507.2858718	224.4606316	17.84703814	1372.008284
82400	2.334945301	624.7700435	501.6191095	241.5625167	17.91518777	1385.866857
82500	2.309745292	635.1204552	525.0660702	250.4252867	18.44210773	1429.05392
82600	2.585285942	616.5011991	499.0977787	243.5552282	17.88057701	1377.034783
82700	2.585690442	618.9080443	531.851844	276.6057071	17.67996441	1445.04556
82800	2.771199817	596.3124967	558.2160052	283.0449263	18.30120097	1455.874629
82900	2.899943573	594.9123954	604.8582184	282.1416047	18.08937541	1500.001594
83000	3.082969643	621.6306873	636.6554232	258.0619236	18.89227322	1535.240307
83100	3.147303272	644.3735054	632.6509267	324.3424368	18.91529184	1620.282161
83200	3.484429569	632.8898636	660.3124788	289.9417229	18.22145153	1601.365517
83300	3.582727241	670.4806851	669.9375655	310.5337753	17.38979196	1668.341818
83400	3.637637667	680.0185586	691.8198921	340.9033309	18.2397688	1730.98155
83500	3.685348579	719.4622799	698.9396974	337.2470372	18.92360582	1774.57262
83600	3.781655287	681.3383862	742.8909083	331.1689768	18.02840983	1773.426681
83700	3.70602589	689.885179	761.3151231	340.6184906	17.12331312	1808.942106
83800	3.641014801	670.8764752	784.4990082	338.2793714	17.86882484	1811.52368
83900	3.511137258	724.2496268	706.9640607	361.9325413	18.56793888	1811.714168
84000	3.594642091	624.1749348	733.1679274	334.1973056	18.29716601	1709.837334
84100	3.519002416	661.3323325	652.8617133	315.0731434	18.11448316	1647.381672
84200	3.240350454	635.7110079	685.2547224	312.5422601	18.54832658	1652.056317
84300	3.167033004	671.6778935	614.7978695	269.1328534	18.02011936	1573.628736
84400	2.921632302	665.7902478	601.3189485	276.488992	17.37230968	1560.970498
84500	2.661442939	610.3115814	652.9307983	287.4185793	17.42559362	1568.086553
84600	2.796085274	665.3077005	504.8419205	245.307508	17.19907856	1432.656207
84700	2.494892146	621.8385502	576.9366837	256.6116378	16.64054471	1472.027416
84800	2.477946573	625.5748314	536.5736035	243.2864016	17.26355295	1422.698389
84900	2.642135848	580.7040789	523.7560459	196.8649625	18.1740789	1319.499166
85000	2.198505132	655.0972768	543.7365868	239.310385	17.00326381	1455.147512
85100	2.320325726	581.1580726	559.8137924	239.6662193	17.14366185	1397.781746
85200	2.402087884	637.8947867	494.2005812	222.2725606	17.37849933	1371.746428
85300	2.296364989	588.2489228	591.1192647	234.5568379	16.42406469	1430.34909
85400	2.419184524	623.3992857	545.6848225	232.2974429	17.34926211	1418.730813
85500	2.392249466	584.4201642	649.1593114	225.7138925	18.31688896	1477.610257
85600	2.571358587	649.8839678	548.1854446	259.5180772	17.29078319	1474.878273
85700	2.730059528	629.7732303	586.8247803	258.1092835	17.1961339	1491.903428
85800	2.689728481	655.7822091	621.7809299	295.1820853	18.52013549	1591.26536
85900	3.123741779	631.6514075	602.5685707	273.7296651	18.34853023	1526.298174
86000	3.285490847	662.5506944	604.0465647	282.6765754	18.36379236	1567.637627
86100	3.323424493	681.2185268	639.9662884	316.1864352	17.95154948	1655.3228
86200	3.638830324	643.1671501	664.4917814	308.3117306	18.44653594	1634.417198
86300	3.644008913	674.3393419	689.3223124	333.7498135	18.25935498	1715.670823
86400	3.687219529	681.8614494	722.5896118	339.1658952	18.71714366	1762.3341
86500	3.829124494	684.695629	717.8207617	328.2158844	19.02560645	1749.757881
86600	3.768118117	649.7708623	811.1648574	303.3248466	18.25792736	1782.518494
86700	3.704049971	777.2417352	639.4126812	351.0901255	18.57394105	1786.318483
86800	3.653680766	659.0514729	746.3557066	333.5588379	19.42424937	1758.390267
86900	3.600005411	687.4122615	707.1043412	295.1263701	18.91899988	1708.561973
87000	3.398166679	642.0314936	714.944654	316.6688569	18.44978819	1692.094793
87100	3.285131478	628.8050742	685.3139911	302.8163512	18.70625999	1635.641677
87200	3.113460322	631.8720671	649.1161103	295.2473453	18.40244272	1594.637965
87300	2.954767166	614.9425639	625.9154004	293.3596094	17.69226174	1551.909835
87400	2.824493163	642.7703254	582.5274329	262.7277464	18.24105878	1506.266563
87500	2.600378463	672.6082592	549.4284958	265.6369896	17.78668771	1505.460432
87600	2.655077194	629.5625654	530.8786177	239.265179	17.75215021	1417.458512
87700	2.342724043	650.5734632	524.2310921	283.8139896	18.43073592	1477.049281
87800	2.651108178	580.7338511	507.6273354	217.0598476	18.02138626	1323.44242
87900	2.409395899	570.698392	564.5907426	233.9795845	17.10900658	1386.377726
88000	2.333574868	589.4162378	554.7881561	240.3893446	18.47744847	1403.071187
88100	2.357199166	620.6874636	511.5224185	247.8199697	18.19699173	1398.226844
88200	2.327842124	591.8602643	570.6113752	248.2095135	17.95961528	1428.640768
88300	2.432861398	667.6693295	512.5999172	224.6156987	18.92982243	1423.814768
88400	2.346085526	577.7428572	645.5789978	262.7042602	18.84216067	1504.868276
88500	2.53684374	665.1624539	570.3042743	242.1387627	19.19340459	1496.798895
88600	2.599172314	622.664865	638.293514	269.8604061	20.03260457	1550.85139
88700	2.909825249	664.7618383	587.509711	253.5994737	19.08387285	1524.954896
88800	2.907751954	652.2267654	649.9397645	303.8875157	18.65050932	1624.704555
88900	3.287890371	627.0383694	647.2047829	291.4257417	18.85568008	1584.524574
89000	3.262745302	669.574443	679.0943419	325.1635953	19.63366872	1693.466049
89100	3.532927917	693.8378541	651.6200133	322.3011665	18.16112731	1685.920161
89200	3.685184397	680.8142291	650.4987497	359.2463476	18.27515114	1708.834478
89300	3.695320295	761.5231745	632.8969899	350.6918578	19.35830273	1764.470325
89400	3.923180773	668.5926591	696.011633	332.4957591	18.88685315	1715.986904
89500	3.764754901	678.020198	676.4535946	404.3960735	19.41992162	1778.289788
89600	3.75267747	680.2539123	710.1851733	347.9366889	19.45853603	1757.834311
89700	3.738772117	653.8002418	709.6658034	329.4961755	18.98410094	1711.946322
89800	3.485052629	760.2533203	598.0267646	350.3949659	19.87873804	1728.553789
89900	3.14554282	601.6804602	797.3783673	346.8752762	20.12980384	1766.063907
90000	3.223071073	728.7421322	592.7633979	302.1244685	18.52324391	1642.153242
90100	2.981854488	619.2263965	700.8235799	288.7189435	17.83118316	1626.600103
90200	2.766830889	692.3191481	588.6595534	305.6743047	18.12171346	1604.77472
90300	2.62287713	610.2793868	650.2154887	286.3480114	17.78481259	1564.627699
90400	2.497373165	723.1323277	532.8728059	258.9164045	17.66596213	1532.5875
90500	2.487976476	600.4565146	624.1681988	224.8961083	18.2793651	1467.800187
90600	2.409080811	645.3991075	516.3823693	263.8433487	17.75248463	1443.37731
90700	2.316920216	546.0151296	622.9213274	253.6968455	17.67338929	1440.306692
90800	2.322348296	671.2558469	472.5958721	254.2955066	18.5118165	1416.659042
90900	2.390038265	586.396377	573.2247651	208.4143064	17.63504347	1385.670492
91000	2.499199018	560.458881	533.4254911	243.0345808	16.59896238	1353.517915
91100	2.652022467	612.3092692	463.1484547	226.21466	17.43262447	1319.105008
91200	2.430259786	625.9008655	530.277425	264.5867336	17.0971955	1437.86222
91300	2.746941225	621.2011179	498.1835052	230.9391316	17.30185631	1367.625611
91400	2.558322915	621.6103829	587.9687577	274.3012616	17.68795059	1501.568353
91500	2.920530396	640.0144543	538.9742505	244.7807501	17.71230122	1441.481756
91600	2.959063283	574.6832637	654.3054339	265.372031	17.26689164	1511.62762
91700	2.928796613	683.4747165	616.5750124	295.4044434	17.05948095	1612.513653
91800	3.192932158	616.1503521	711.755067	266.7832931	16.5256093	1611.214322
91900	3.323926485	730.2499958	585.4222937	327.9293874	16.02070668	1659.622384
92000	3.531025791	661.8166971	715.3938933	279.6176678	15.75058182	1672.57884
92100	3.278232978	728.3570888	727.3094801	363.9296688	16.39413934	1835.990377
92200	3.744272889	641.1180938	741.299147	316.6602945	17.49411504	1716.57165
92300	3.23806369	741.052156	787.0841246	388.3757494	16.37354618	1932.885576
92400	3.818894901	604.1669948	804.200914	295.7613988	17.1349219	1721.26423
92500	3.505740638	759.3490804	665.0692107	370.1886807	18.26371121	1812.870683
92600	3.646384127	652.5055515	717.6295348	326.3020909	17.01439329	1713.451571
92700	3.579421736	686.641375	609.7902335	355.4496689	17.00803022	1668.889308
92800	3.622815831	675.010289	563.3498247	309.8526148	17.2126436	1565.425372
92900	3.165223725	630.6205244	661.2842468	333.1845762	17.62269322	1642.712041
93000	3.240427832	674.949965	547.5266102	278.1561467	17.39298676	1518.025709
93100	3.023244825	624.3385283	586.0905352	275.0085761	17.23504102	1502.672681
93200	2.711626427	628.9852898	585.2790727	301.5774503	17.45258049	1533.294393
93300	2.755768921	654.1017317	502.3944919	263.011839	17.61338665	1437.121449
93400	2.305403113	595.4943987	621.4293832	305.367935	18.0382827	1540.33
93500	2.565673144	627.1223435	506.5959048	242.5839162	18.12695961	1394.429124
93600	2.353039589	625.1220158	532.6207999	261.0120653	18.03299423	1436.787875
93700	2.267040904	587.7137977	572.4419647	269.9842319	17.15756813	1447.297562
93800	2.306461397	660.437181	494.7142839	252.5806527	18.07479987	1425.806918
93900	2.44144994	596.0784671	541.2099342	228.473765	18.05780628	1383.819973
94000	2.351092276	619.7227566	541.9066701	259.3546329	19.05865754	1440.042717
94100	2.450383246	599.7874324	570.1176986	250.2345664	18.91828941	1439.057987
94200	2.489779522	676.8630651	498.8322954	283.3144112	18.54473175	1477.554503
94300	2.720309345	599.548639	571.6857339	268.3741257	18.68164463	1458.290143
94400	2.767045409	654.9232042	545.4621671	300.3919896	19.3277745	1520.105135
94500	2.948140779	620.5582256	630.2917187	275.7705726	18.53912285	1545.15964
94600	3.052051702	711.8988014	574.5048432	300.7937568	18.26254451	1605.459946
94700	3.272803395	673.1560617	612.6611965	318.4636284	19.6453378	1623.926224
94800	3.303451501	657.0783304	665.547926	370.9522792	19.1168333	1712.695369
94900	3.649809137	661.7181191	665.7760807	326.1741858	18.98254841	1672.650934
95000	3.477911052	690.321389	764.1054742	337.474348	19.98942857	1811.89064
95100	3.534980077	678.8840934	754.4276571	390.3312443	19.94062013	1843.583615
95200	3.835289874	647.8883672	728.3696804	361.2972155	20.05041955	1757.605683
95300	3.702403284	692.4115051	734.1028466	354.9241492	18.91431618	1800.352817
95400	3.694074634	695.2176434	701.9865622	351.7474146	19.17661262	1768.128233
95500	3.695555394	681.8679978	663.6009799	342.5107788	19.1451619	1707.124918
95600	3.330132183	686.9071002	708.6087205	346.6590222	18.74508345	1760.919926
95700	3.430986183	685.9350367	613.8321622	310.4321146	18.80371044	1629.003024
95800	3.167168815	672.2779751	622.7053203	314.4735227	19.16847884	1628.625297
95900	2.911825037	635.152838	676.9425126	299.5941732	18.69923587	1630.38876
96000	3.017956517	631.21173	564.9616765	284.4112767	18.84522432	1499.429908
96100	2.730750174	636.9588809	593.7488786	268.6062358	17.87135916	1517.185354
96200	2.589692847	633.8438642	574.4355124	267.6451753	17.96299776	1493.88755
96300	2.594389816	611.5009012	524.5067778	274.0021918	17.76357222	1427.773443
96400	2.388698857	590.6713945	592.9418962	248.6186826	19.05012864	1451.282102
96500	2.441985435	630.8969585	513.9930827	231.570309	19.17382192	1395.634172
96600	2.417400403	584.712258	532.1230375	247.8365479	18.2066197	1382.878463
96700	2.405071061	582.6148701	536.9024383	242.5650612	17.91316288	1379.995532
96800	2.446009096	612.298601	518.7257231	222.5206003	18.40749166	1371.952416
96900	2.448031839	660.9282231	471.7132227	243.8719982	17.12486105	1393.638305
97000	2.404522212	588.2123231	580.2032136	259.8635386	17.32401346	1445.603089
97100	2.439380353	690.7415667	508.2906268	267.4743986	17.48029295	1483.986885
97200	2.773979813	579.2275174	584.3373859	248.1044264	16.61879482	1428.288125
97300	2.566444173	692.0550055	573.7423812	302.5613896	18.14835449	1586.507131
97400	3.115965267	638.5744249	566.2291334	249.8541661	18.40271951	1473.060444
97500	3.077916701	594.0634894	667.1900662	309.7594411	18.13493992	1589.147937
97600	3.164032981	602.1922292	706.2946754	331.3892198	18.87559508	1658.751719
97700	3.431241733	688.0730934	643.4659862	310.740867	18.92555437	1661.205501
97800	3.639307146	607.6236097	730.9877162	320.2124842	17.40301661	1676.226827
97900	3.760381071	687.0694365	670.5174866	328.6678455	18.42586155	1704.68063
98000	3.751914604	643.8773615	753.4033613	336.0489572	17.58698695	1750.916667
98100	3.615511545	730.5654898	701.285931	370.0534974	17.03691444	1818.941833
98200	3.856486633	660.0044796	736.6084941	306.9927579	16.92949954	1720.535231
98300	3.651728199	691.9273852	711.6345093	342.348501	16.63468126	1762.545077
98400	3.705531031	673.0094002	666.7215413	326.5853312	16.95542615	1683.271699
98500	3.527789024	670.9216928	664.9596147	317.0666642	17.24768597	1670.195658
98600	3.170011843	699.6169744	659.0635627	337.9596155	17.78081356	1714.420966
98700	3.267696132	612.1446784	649.8544277	306.9847771	17.06536993	1586.049253
98800	3.078973518	658.8556181	596.8535808	285.4540617	16.73769854	1557.900959
98900	2.817177164	597.7106857	657.6894202	290.0364289	16.892645	1562.32918
99000	2.840891226	635.8647407	556.4248478	261.1344856	16.5055539	1469.929628
99100	2.622225212	619.2013276	583.2812419	259.8587476	16.92432456	1479.265642
99200	2.625286751	622.1613235	548.9277213	229.9171464	17.02709862	1418.03329
99300	2.341778055	658.6252276	530.6064698	273.161166	16.15986121	1478.552725
99400	2.45532884	626.0128912	523.9170738	240.1220821	16.18583735	1406.237884
99500	2.316546924	617.5230951	557.0431796	250.8404948	16.94852777	1442.355297
99600	2.413345068	592.0589013	575.6891706	221.4453579	16.79817988	1405.99161
99700	2.25840367	619.700041	571.6583252	270.4447998	16.50108661	1478.304253
99800	2.60526793	607.3917401	552.7798743	203.6422505	15.89259911	1379.706464
99900	2.408963999	659.4221482	548.6496553	273.3992392	15.70776738	1497.17881
